// Jest Snapshot v1, https://goo.gl/fbAQLP

exports[`should display profile names 1`] = `
<div
  className="profileList"
>
  <div
    className="media"
    itemScope={true}
    itemType="https://schema.org/Person"
    key="article_undefined_/arbitrary-orcid"
  >
    <p
      className="media-item"
    >
      <Link
        itemProp="url"
        replace={false}
        title="View the profile of Arbitrary name"
        to="/profile//arbitrary-orcid"
      >
        Arbitrary name
      </Link>
    </p>
  </div>
</div>
`;
